%YAML 1.1
%TAG !u! tag:unity3d.com,2011:
--- !u!1045 &1
EditorBuildSettings:
  m_ObjectHideFlags: 0
  serializedVersion: 2
  m_Scenes:
  - enabled: 1
    path: Assets/Scenes/Menu.unity
    guid: f6d6e53486d8ba740a8f038215098171
  - enabled: 1
    path: Assets/Scenes/Shop.unity
    guid: 8bf09200762e9494086ac23c548672a7
  - enabled: 1
    path: Assets/Scenes/EarlGrey.unity
    guid: 083dbb898cf26074bb3d4b916ba4a6da
  - enabled: 1
    path: Assets/Scenes/Matcha.unity
    guid: d1dbbf7f1656ed0459603855d19af082
  m_configObjects: {}
